<?xml version="1.0" encoding="UTF-8" standalone="no"?>
<svg xmlns="http://www.w3.org/2000/svg" height="300" width="300" version="1.1" viewBox="0 0 300 300">
 <path d="m44.66 44.9a149 148.9 0 0 0 -43.67 105.1 149 148.9 0 0 0 43.63 105 149 148.9 0 0 0 43.67 -105 149 148.9 0 0 0 -43.63 -105.1z" stroke="#111" stroke-width="1.987" fill="#74972e"/>
</svg>
