<?xml version="1.0" encoding="UTF-8" standalone="no"?>
<svg xmlns="http://www.w3.org/2000/svg" height="300" width="300" version="1.1" viewBox="0 0 300 300">
 <path d="m255.3 44.9a149 148.9 0 0 0 -105.3 -43.91 149 148.9 0 0 0 -105.2 43.53 149 148.9 0 0 0 105.2 43.9 149 148.9 0 0 0 105.3 -43.52z" stroke="#111" stroke-width="1.987" fill="#d07810"/>
</svg>
